<?xml version="1.0" encoding="utf-8"?>
<!-- Generator: Adobe Illustrator 24.0.0, SVG Export Plug-In . SVG Version: 6.00 Build 0)  -->
<svg version="1.1" id="Capa_1" xmlns="http://www.w3.org/2000/svg" xmlns:xlink="http://www.w3.org/1999/xlink" x="0px" y="0px"
	 viewBox="0 0 264.5 66" style="enable-background:new 0 0 264.5 66;" xml:space="preserve">
<style type="text/css">
	.st0{fill:#1CC5F2;}
</style>
<title>Recurso 5</title>
<g id="Capa_2_1_">
	<g id="Capa_1-2">
		<path d="M128.6,29.7c0,7.5-3.1,15.1-9.3,19.6l5.8,8.7h-10.9l-3.2-4.9c-2,0.5-4.1,0.7-6.2,0.7c-15.9,0-23.8-12-23.8-24.1
			s8-24.2,23.8-24.2S128.6,17.6,128.6,29.7z M91.1,29.6c0,7.5,4.6,15.1,13.7,15.1h0.7l-4.9-7.6H111l2.9,4.2
			c3.1-3.1,4.8-7.3,4.7-11.7c0-7.5-4.6-15.1-13.7-15.1S91.1,22.1,91.1,29.6z"/>
		<path d="M142.6,49.1v12.3h-9.4V15.8h9.4v4c2.8-3,6.7-4.7,10.8-4.6c11,0,17.3,9.6,17.3,19.2s-6.3,19.3-17.3,19.3
			C149.3,53.9,145.3,52.2,142.6,49.1z M151.7,45c6.1,0,9.2-5.3,9.2-10.5s-3-10.5-9.2-10.5s-9.2,5.2-9.2,10.5S145.6,45,151.7,45z"/>
		<path d="M175.6,4.5h9.4v48.6h-9.4V4.5z"/>
		<path d="M218,53.1v-4c-2.8,3.1-6.7,4.7-10.8,4.6c-10.9,0-17.3-9.7-17.3-19.3s6.3-19.2,17.3-19.2c4.1-0.1,8.1,1.5,10.8,4.6v-4h9.4
			v37.3H218z M208.8,24c-6.1,0-9.2,5.2-9.2,10.5s3,10.5,9.2,10.5s9.2-5.3,9.2-10.5S214.9,24,208.8,24z"/>
		<path d="M255.4,53.1c-1.9,8.1-10.2,12.2-18.4,12.2v-8.8c3.3,0,6.6-1.2,8.3-3.4h-4.1L232,15.8h9.8l6.4,27.6l6.4-27.6h9.8
			L255.4,53.1z"/>
		<path class="st0" d="M58.2,24.5L38.1,12.9L18,1.3C13.3-1.4,7.4,0.2,4.7,4.8C3.8,6.3,3.3,8,3.3,9.8v24.7l2.5-2.3
			c4.1-3.8,10.5-3.5,14.3,0.7c0,0,0,0,0,0l1.6,1.8c3.8,4.1,3.5,10.5-0.7,14.3c0,0,0,0,0,0L5.9,62.8C9,66.2,14,67,18,64.7L38.1,53
			l20.1-11.6c4.7-2.7,6.3-8.6,3.7-13.3C61,26.6,59.7,25.3,58.2,24.5z"/>
		<path class="st0" d="M1.5,39.9l7-6.3c1.9-1.7,4.8-1.6,6.5,0.3l4.8,5.2c1.7,1.9,1.6,4.8-0.3,6.5l-7,6.3c-1.9,1.7-4.8,1.6-6.5-0.3
			l-4.8-5.2C-0.5,44.5-0.4,41.6,1.5,39.9z"/>
	</g>
</g>
</svg>
